<svg id="Component_1_1" data-name="Component 1 – 1" xmlns="http://www.w3.org/2000/svg" width="27.539" height="29.203" viewBox="0 0 27.539 29.203">
  <g id="Group_174106" data-name="Group 174106" transform="matrix(0.966, -0.259, 0.259, 0.966, -17.338, 10.337)">
    <path id="Path_53532" data-name="Path 53532" d="M39.925,18.186A2.819,2.819,0,0,0,37.106,15.7a.308.308,0,0,1-.31-.31V10.769a8.094,8.094,0,0,0-5.226-7.55,2.747,2.747,0,0,0,.055-.538,2.681,2.681,0,1,0-5.363,0,2.871,2.871,0,0,0,.051.522,7.846,7.846,0,0,0-5.222,7.4v4.794a.311.311,0,0,1-.31.31,2.817,2.817,0,0,0-2.819,2.481A2.749,2.749,0,0,0,20.7,21.2h4.735a3.532,3.532,0,0,0,7.02,0h4.735a2.749,2.749,0,0,0,2.736-3.015ZM28.944,1.57a1.113,1.113,0,0,1,1.111,1.111.96.96,0,0,1-.016.149,6.958,6.958,0,0,0-.809-.075,8.09,8.09,0,0,0-1.382.079.96.96,0,0,1-.016-.149A1.114,1.114,0,0,1,28.944,1.57Zm0,21.2A1.97,1.97,0,0,1,27.02,21.2h3.848A1.969,1.969,0,0,1,28.944,22.771Zm9.116-3.526a1.168,1.168,0,0,1-.872.385H20.7a1.169,1.169,0,0,1-.872-.385,1.153,1.153,0,0,1-.3-.911,1.234,1.234,0,0,1,1.256-1.06,1.883,1.883,0,0,0,1.881-1.881V10.6a6.284,6.284,0,0,1,6.278-6.282c.079,0,.153,0,.232,0a6.423,6.423,0,0,1,6.05,6.447v4.625a1.883,1.883,0,0,0,1.881,1.881,1.234,1.234,0,0,1,1.256,1.06A1.175,1.175,0,0,1,38.06,19.246ZM18.775,9.423a.784.784,0,0,0,.766-.616,9.178,9.178,0,0,1,2.5-4.542.786.786,0,0,0-1.111-1.111,10.743,10.743,0,0,0-2.921,5.32.78.78,0,0,0,.6.934.909.909,0,0,0,.173.016Zm20.337,0a.828.828,0,0,0,.169-.02.782.782,0,0,0,.6-.934,10.76,10.76,0,0,0-2.921-5.32A.786.786,0,0,0,35.846,4.26a9.209,9.209,0,0,1,2.5,4.542A.791.791,0,0,0,39.112,9.423Z" fill="#e04122"/>
  </g>
</svg>
