<svg xmlns="http://www.w3.org/2000/svg" width="272.682" height="147.97" viewBox="0 0 272.682 147.97">
  <g id="Group_174313" data-name="Group 174313" transform="translate(0 0)" opacity="0.09">
    <path id="Path_53548" data-name="Path 53548" d="M260.619,129.063,206.366,81.58a19.156,19.156,0,1,0-37.137-7.19L126.35,89.4a19.163,19.163,0,0,0-23.691-4.441L53.225,42.726A19.147,19.147,0,1,0,44.26,53.218L93.694,95.454a19.156,19.156,0,1,0,37.215,6.969l42.88-15.012a19.16,19.16,0,0,0,23.494,4.545l54.253,47.483a19.152,19.152,0,1,0,9.084-10.376Z" transform="translate(-16 -17.208)" fill="#fff" fill-rule="evenodd"/>
  </g>
</svg>
